Dickson_CR2/Dickson_CR2.sim/sim_1/behav/xsim/reaction_timer_tb.vcd
$date
   Mon Sep 22 15:39:42 2025
$end

$version
  2024.1
  $dumpfile ("reaction_timer_tb.vcd") 
$end

$timescale
  1ps
$end

$scope module reaction_timer_tb $end
$var reg 1 ! clk $end
$var reg 1 " rst $end
$var reg 1 # btn_clear $end
$var reg 1 $ btn_start $end
$var reg 1 % btn_stop $end
$var reg 1 & stim_led $end
$var reg 8 ' an [7:0] $end
$var reg 8 ( sseg [7:0] $end
$scope module dut $end
$var wire 1 ) clk $end
$var wire 1 * rst $end
$var wire 1 + btn_clear $end
$var wire 1 , btn_start $end
$var wire 1 - btn_stop $end
$var reg 1 & stim_led $end
$var reg 8 ' an [7:0] $end
$var reg 8 ( sseg [7:0] $end
$var reg 1 . tick_1ms $end
$var reg 1 / tick_scan $end
$var reg 1 0 clr_q $end
$var reg 1 1 clr_qq $end
$var reg 1 2 start_q $end
$var reg 1 3 start_qq $end
$var reg 1 4 stop_q $end
$var reg 1 5 stop_qq $end
$var reg 1 6 clr_pe $end
$var reg 1 7 start_pe $end
$var reg 1 8 stop_pe $end
$var reg 16 9 lfsr_q [15:0] $end
$var reg 14 : rnd_ms_load [13:0] $end
$var reg 14 ; rnd_ms_cnt [13:0] $end
$var reg 1 < rnd_done $end
$var reg 14 = ms_cnt [13:0] $end
$var reg 1 > ms_tick_en $end
$var reg 4 ? dig3 [3:0] $end
$var reg 4 @ dig2 [3:0] $end
$var reg 4 A dig1 [3:0] $end
$var reg 4 B dig0 [3:0] $end
$var reg 3 C state_reg $end
$var reg 3 D state_next $end
$var reg 14 E result_ms [13:0] $end
$var reg 14 F result_next [13:0] $end
$var reg 1 G ms_tick_en_next $end
$var reg 1 H load_random $end
$var reg 1 I clr_ms $end
$var reg 32 J thousands [31:0] $end
$var reg 32 K hundreds [31:0] $end
$var reg 32 L tens [31:0] $end
$var reg 32 M ones [31:0] $end
$var reg 4 N d3_next [3:0] $end
$var reg 4 O d2_next [3:0] $end
$var reg 4 P d1_next [3:0] $end
$var reg 4 Q d0_next [3:0] $end
$scope module u_tick_1ms $end
$var wire 1 ) clk $end
$var wire 1 * rst $end
$var reg 1 . tick $end
$var reg 7 R cnt_q [6:0] $end
$var reg 7 S cnt_next [6:0] $end
$upscope $end
$scope module u_tick_scan $end
$var wire 1 ) clk $end
$var wire 1 * rst $end
$var reg 1 / tick $end
$var reg 5 T cnt_q [4:0] $end
$var reg 5 U cnt_next [4:0] $end
$upscope $end
$scope module u_lfsr16 $end
$var wire 1 ) clk $end
$var wire 1 * rst $end
$var reg 16 9 q [15:0] $end
$var reg 1 V feedback $end
$upscope $end
$scope begin Block295_12 $end
$var reg 14 W rnd_val [13:0] $end
$upscope $end
$scope module u_sseg $end
$var wire 1 ) clk $end
$var wire 1 * rst $end
$var wire 1 X tick_scan $end
$var wire 4 Y d3 [3:0] $end
$var wire 4 Z d2 [3:0] $end
$var wire 4 [ d1 [3:0] $end
$var wire 4 \ d0 [3:0] $end
$var reg 8 ' an [7:0] $end
$var reg 8 ( sseg [7:0] $end
$var reg 2 ] sel_q [1:0] $end
$var reg 4 ^ cur_nib [3:0] $end
$scope function map_glyph $end
$upscope $end
$upscope $end
$scope function mod13001 $end
$upscope $end
$upscope $end
$scope task pulse_button $end
$upscope $end
$scope task apply_reset $end
$upscope $end
$scope task wait_for_go $end
$upscope $end
$upscope $end
$enddefinitions $end

#0
$dumpvars
0!
0"
0#
0$
0%
0&
b11111110 '
b11111111 (
0)
0*
0+
0,
0-
0.
0/
00
01
02
03
04
05
06
07
08
b1010110011100001 9
b11111010000 :
b0 ;
1<
b0 =
0>
b1010 ?
b1011 @
b1111 A
b1111 B
b0 C
b0 D
b0 E
b0 F
0G
0H
0I
b0 J
b0 K
b0 L
b0 M
b1010 N
b1011 O
b1111 P
b1111 Q
b0 R
b1 S
b0 T
b1 U
1V
bx W
0X
b1010 Y
b1011 Z
b1111 [
b1111 \
b0 ]
b1111 ^
$end

#5000
1!
1)

#10000
0!
0)

#15000
1!
1)

#20000
0!
0)

#25000
1!
1)

#30000
0!
0)

#35000
1!
1)

#40000
0!
0)

#45000
1!
1)

#50000
0!
0)

#55000
1!
1)

#60000
0!
0)

#65000
1!
1)

#70000
0!
0)

#75000
1!
1"
1)
1*
b101100111000011 9
b1 R
b10 S
b1 T
b10 U

#80000
0!
0)

#85000
1!
1)
b1011001110000111 9
b10 R
b11 S
b10 T
b11 U

#90000
0!
0)

#95000
1!
1)
b110011100001111 9
b11 R
b100 S
b11 T
b100 U
0V

#100000
0!
0)

#105000
1!
1)
b1100111000011110 9
b100 R
b101 S
b100 T
b101 U

#110000
0!
0)

#115000
1!
1)
b1001110000111100 9
b101 R
b110 S
b101 T
b110 U
1V

#120000
0!
0)

#125000
1!
1)
b11100001111001 9
b110 R
b111 S
b110 T
b111 U
0V

#130000
0!
0)

#135000
1!
1)
b111000011110010 9
b111 R
b1000 S
b111 T
b1000 U

#140000
0!
0)

#145000
1!
1)
b1110000111100100 9
b1000 R
b1001 S
b1000 T
b1001 U

#150000
0!
0)

#155000
1!
1)
b1100001111001000 9
b1001 R
b1010 S
b1001 T
b1010 U
1V

#160000
0!
0)

#165000
1!
1)
b1000011110010001 9
b1010 R
b1011 S
b1010 T
b1011 U
0V

#170000
0!
0)

#175000
1!
1)
b111100100010 9
b1011 R
b1100 S
b1011 T
b1100 U
1V

#180000
0!
0)

#185000
1!
1)
b1111001000101 9
b1100 R
b1101 S
b1100 T
b1101 U
0V

#190000
0!
0)

#195000
1!
1)
b11110010001010 9
b1101 R
b1110 S
b1101 T
b1110 U
1V

#200000
0!
0)

#205000
1!
1)
b111100100010101 9
b1110 R
b1111 S
b1110 T
b1111 U
0V

#210000
0!
0)

#215000
1!
1)
b1111001000101010 9
b1111 R
b10000 S
b1111 T
b10000 U
1V

#220000
0!
0)

#225000
1!
1)
b1110010001010101 9
b10000 R
b10001 S
b10000 T
b10001 U

#230000
0!
0)

#235000
1!
1)
b1100100010101011 9
b10001 R
b10010 S
b10001 T
b10010 U

#240000
0!
0)

#245000
1!
1)
b1001000101010111 9
b10010 R
b10011 S
b10010 T
b10011 U
0V

#250000
0!
0)

#255000
1!
1)
b10001010101110 9
b10011 R
b10100 S
b10011 T
b10100 U
1V

#260000
0!
0)

#265000
1!
1)
b100010101011101 9
b10100 R
b10101 S
b10100 T
b10101 U

#270000
0!
0)

#275000
1!
1)
b1000101010111011 9
b10101 R
b10110 S
b10101 T
b10110 U

#280000
0!
0)

#285000
1!
1)
b1010101110111 9
b10110 R
b10111 S
b10110 T
b10111 U
0V

#290000
0!
0)

#295000
1!
1)
b10101011101110 9
b10111 R
b11000 S
b10111 T
b11000 U
1V

#300000
0!
0)

#305000
1!
1)
1/
b101010111011101 9
b11000 R
b11001 S
b11000 T
b0 U
0V
1X

#310000
0!
0)

#315000
1!
b11111101 '
1)
0/
b1010101110111010 9
b11001 R
b11010 S
b0 T
b1 U
0X
b1 ]

#320000
0!
0)

#325000
1!
1)
b101011101110100 9
b11010 R
b11011 S
b1 T
b10 U

#330000
0!
0)

#335000
1!
1)
b1010111011101000 9
b11011 R
b11100 S
b10 T
b11 U
1V

#340000
0!
0)

#345000
1!
1)
b101110111010001 9
b11100 R
b11101 S
b11 T
b100 U
0V

#350000
0!
0)

#355000
1!
1)
b1011101110100010 9
b11101 R
b11110 S
b100 T
b101 U
1V

#360000
0!
0)

#365000
1!
1)
b111011101000101 9
b11110 R
b11111 S
b101 T
b110 U

#370000
0!
0)

#375000
1!
1)
b1110111010001011 9
b11111 R
b100000 S
b110 T
b111 U

#380000
0!
0)

#385000
1!
1)
b1101110100010111 9
b100000 R
b100001 S
b111 T
b1000 U

#390000
0!
0)

#395000
1!
1)
b1011101000101111 9
b100001 R
b100010 S
b1000 T
b1001 U

#400000
0!
0)

#405000
1!
1)
b111010001011111 9
b100010 R
b100011 S
b1001 T
b1010 U

#410000
0!
0)

#415000
1!
1)
b1110100010111111 9
b100011 R
b100100 S
b1010 T
b1011 U
0V

#420000
0!
0)

#425000
1!
1)
b1101000101111110 9
b100100 R
b100101 S
b1011 T
b1100 U

#430000
0!
0)

#435000
1!
1)
b1010001011111100 9
b100101 R
b100110 S
b1100 T
b1101 U

#440000
0!
0)

#445000
1!
1)
b100010111111000 9
b100110 R
b100111 S
b1101 T
b1110 U
1V

#450000
0!
0)

#455000
1!
1)
b1000101111110001 9
b100111 R
b101000 S
b1110 T
b1111 U

#460000
0!
0)

#465000
1!
1)
b1011111100011 9
b101000 R
b101001 S
b1111 T
b10000 U
0V

#470000
0!
0)

#475000
1!
1)
b10111111000110 9
b101001 R
b101010 S
b10000 T
b10001 U

#480000
0!
0)

#485000
1!
1)
b101111110001100 9
b101010 R
b101011 S
b10001 T
b10010 U

#490000
0!
0)

#495000
1!
1)
b1011111100011000 9
b101011 R
b101100 S
b10010 T
b10011 U

#500000
0!
0)

#505000
1!
1)
b111111000110000 9
b101100 R
b101101 S
b10011 T
b10100 U
1V

#510000
0!
0)

#515000
1!
1)
b1111110001100001 9
b101101 R
b101110 S
b10100 T
b10101 U
0V

#520000
0!
0)

#525000
1!
1)
b1111100011000010 9
b101110 R
b101111 S
b10101 T
b10110 U
1V

#530000
0!
0)

#535000
1!
1)
b1111000110000101 9
b101111 R
b110000 S
b10110 T
b10111 U

#540000
0!
0)

#545000
1!
1)
b1110001100001011 9
b110000 R
b110001 S
b10111 T
b11000 U
0V

#550000
0!
0)

#555000
1!
1)
1/
b1100011000010110 9
b110001 R
b110010 S
b11000 T
b0 U
1X

#560000
0!
0)

#565000
1!
b11111011 '
b11001111 (
1)
0/
b1000110000101100 9
b110010 R
b110011 S
b0 T
b1 U
0X
b10 ]
b1011 ^

#570000
0!
0)

#575000
1!
1)
b1100001011000 9
b110011 R
b110100 S
b1 T
b10 U
1V

#580000
0!
0)

#585000
1!
1)
b11000010110001 9
b110100 R
b110101 S
b10 T
b11 U
0V

#590000
0!
0)

#595000
1!
1)
b110000101100010 9
b110101 R
b110110 S
b11 T
b100 U
1V

#600000
0!
0)

#605000
1!
1)
b1100001011000101 9
b110110 R
b110111 S
b100 T
b101 U

#610000
0!
0)

#615000
1!
1)
b1000010110001011 9
b110111 R
b111000 S
b101 T
b110 U
0V

#620000
0!
0)

#625000
1!
1)
b101100010110 9
b111000 R
b111001 S
b110 T
b111 U

#630000
0!
0)

#635000
1!
1)
b1011000101100 9
b111001 R
b111010 S
b111 T
b1000 U

#640000
0!
0)

#645000
1!
1)
b10110001011000 9
b111010 R
b111011 S
b1000 T
b1001 U

#650000
0!
0)

#655000
1!
1)
b101100010110000 9
b111011 R
b111100 S
b1001 T
b1010 U
1V

#660000
0!
0)

#665000
1!
1)
b1011000101100001 9
b111100 R
b111101 S
b1010 T
b1011 U

#670000
0!
0)

#675000
1!
1)
b110001011000011 9
b111101 R
b111110 S
b1011 T
b1100 U

#680000
0!
0)

#685000
1!
1)
b1100010110000111 9
b111110 R
b111111 S
b1100 T
b1101 U
0V

#690000
0!
0)

#695000
1!
1)
b1000101100001110 9
b111111 R
b1000000 S
b1101 T
b1110 U
1V

#700000
0!
0)

#705000
1!
1)
b1011000011101 9
b1000000 R
b1000001 S
b1110 T
b1111 U
0V

#710000
0!
0)

#715000
1!
1)
b10110000111010 9
b1000001 R
b1000010 S
b1111 T
b10000 U

#720000
0!
0)

#725000
1!
1)
b101100001110100 9
b1000010 R
b1000011 S
b10000 T
b10001 U
1V

#730000
0!
0)

#735000
1!
1)
b1011000011101001 9
b1000011 R
b1000100 S
b10001 T
b10010 U

#740000
0!
0)

#745000
1!
1)
b110000111010011 9
b1000100 R
b1000101 S
b10010 T
b10011 U

#750000
0!
0)

#755000
1!
1)
b1100001110100111 9
b1000101 R
b1000110 S
b10011 T
b10100 U

#760000
0!
0)

#765000
1!
1)
b1000011101001111 9
b1000110 R
b1000111 S
b10100 T
b10101 U
0V

#770000
0!
0)

#775000
1!
1)
b111010011110 9
b1000111 R
b1001000 S
b10101 T
b10110 U
1V

#780000
0!
0)

#785000
1!
1)
b1110100111101 9
b1001000 R
b1001001 S
b10110 T
b10111 U
0V

#790000
0!
0)

#795000
1!
1)
b11101001111010 9
b1001001 R
b1001010 S
b10111 T
b11000 U

#800000
0!
0)

#805000
1!
1)
1/
b111010011110100 9
b1001010 R
b1001011 S
b11000 T
b0 U
1V
1X

#810000
0!
0)

#815000
1!
b11110111 '
b10011001 (
1)
0/
b1110100111101001 9
b1001011 R
b1001100 S
b0 T
b1 U
0V
0X
b11 ]
b1010 ^

#820000
0!
0)

#825000
1!
1)
b1101001111010010 9
b1001100 R
b1001101 S
b1 T
b10 U

#830000
0!
0)

#835000
1!
1)
b1010011110100100 9
b1001101 R
b1001110 S
b10 T
b11 U
1V

#840000
0!
0)

#845000
1!
1)
b100111101001001 9
b1001110 R
b1001111 S
b11 T
b100 U

#850000
0!
0)

#855000
1!
1)
b1001111010010011 9
b1001111 R
b1010000 S
b100 T
b101 U

#860000
0!
0)

#865000
1!
1)
b11110100100111 9
b1010000 R
b1010001 S
b101 T
b110 U

#870000
0!
0)

#875000
1!
1)
b111101001001111 9
b1010001 R
b1010010 S
b110 T
b111 U
0V

#880000
0!
0)

#885000
1!
1)
b1111010010011110 9
b1010010 R
b1010011 S
b111 T
b1000 U

#890000
0!
0)

#895000
1!
1)
b1110100100111100 9
b1010011 R
b1010100 S
b1000 T
b1001 U

#900000
0!
0)

#905000
1!
1)
b1101001001111000 9
b1010100 R
b1010101 S
b1001 T
b1010 U

#910000
0!
0)

#915000
1!
1)
b1010010011110000 9
b1010101 R
b1010110 S
b1010 T
b1011 U
1V

#920000
0!
0)

#925000
1!
1)
b100100111100001 9
b1010110 R
b1010111 S
b1011 T
b1100 U
0V

#930000
0!
0)

#935000
1!
1)
b1001001111000010 9
b1010111 R
b1011000 S
b1100 T
b1101 U

#940000
0!
0)

#945000
1!
1)
b10011110000100 9
b1011000 R
b1011001 S
b1101 T
b1110 U

#950000
0!
0)

#955000
1!
1)
b100111100001000 9
b1011001 R
b1011010 S
b1110 T
b1111 U
1V

#960000
0!
0)

#965000
1!
1)
b1001111000010001 9
b1011010 R
b1011011 S
b1111 T
b10000 U

#970000
0!
0)

#975000
1!
1)
b11110000100011 9
b1011011 R
b1011100 S
b10000 T
b10001 U

#980000
0!
0)

#985000
1!
1)
b111100001000111 9
b1011100 R
b1011101 S
b10001 T
b10010 U
0V

#990000
0!
0)

#995000
1!
1)
b1111000010001110 9
b1011101 R
b1011110 S
b10010 T
b10011 U
1V

